module gitlab.com/codingpaws/dripple

go 1.21.7

require (
	github.com/urfave/cli/v2 v2.27.1
	modernc.org/sqlite v1.29.5
)

require (
	github.com/antlr4-go/antlr/v4 v4.13.0 // indirect
	github.com/chzyer/readline v0.0.0-20180603132655-2972be24d48e // indirect
	github.com/dustin/go-humanize v1.0.1 // indirect
	github.com/google/uuid v1.3.0 // indirect
	github.com/hashicorp/golang-lru/v2 v2.0.7 // indirect
	github.com/kr/pretty v0.3.0 // indirect
	github.com/libsql/sqlite-antlr4-parser v0.0.0-20240327125255-dbf53b6cbf06 // indirect
	github.com/mattn/go-colorable v0.1.13 // indirect
	github.com/mattn/go-isatty v0.0.20 // indirect
	github.com/ncruces/go-strftime v0.1.9 // indirect
	github.com/remyoudompheng/bigfft v0.0.0-20230129092748-24d4a6f8daec // indirect
	github.com/rogpeppe/go-internal v1.10.0 // indirect
	golang.org/x/exp v0.0.0-20240325151524-a685a6edb6d8 // indirect
	golang.org/x/sys v0.17.0 // indirect
	gopkg.in/check.v1 v1.0.0-20201130134442-10cb98267c6c // indirect
	modernc.org/gc/v3 v3.0.0-20240107210532-573471604cb6 // indirect
	modernc.org/libc v1.41.0 // indirect
	modernc.org/mathutil v1.6.0 // indirect
	modernc.org/memory v1.7.2 // indirect
	modernc.org/strutil v1.2.0 // indirect
	modernc.org/token v1.1.0 // indirect
	nhooyr.io/websocket v1.8.10 // indirect
)

require (
	github.com/KevSlashNull/rqlite_sql v0.0.0-20240402202715-532ade125d16
	github.com/cpuguy83/go-md2man/v2 v2.0.3 // indirect
	github.com/fatih/color v1.16.0
	github.com/joho/godotenv v1.5.1
	github.com/manifoldco/promptui v0.9.0
	github.com/rqlite/sql v0.0.0-20240312185922-ffac88a740bd // indirect
	github.com/russross/blackfriday/v2 v2.1.0 // indirect
	github.com/tursodatabase/libsql-client-go v0.0.0-20240327144008-dd14b387afb3
	github.com/xrash/smetrics v0.0.0-20201216005158-039620a65673 // indirect
	gopkg.in/yaml.v3 v3.0.1
)
